<?xml version="1.0" encoding="utf-8"?>
<!-- Generator: Adobe Illustrator 27.6.1, SVG Export Plug-In . SVG Version: 6.00 Build 0)  -->
<svg version="1.1" id="Livello_1" xmlns="http://www.w3.org/2000/svg" xmlns:xlink="http://www.w3.org/1999/xlink" x="0px" y="0px"
	 viewBox="0 0 910.8 240.9" style="enable-background:new 0 0 910.8 240.9;" xml:space="preserve">
<style type="text/css">
	.st0{fill:#008D36;}
	.st1{font-family:'Avigea';}
	.st2{font-size:165.8084px;}
	.st3{fill:#F2B339;}
	.st4{fill:#F2B33B;}
	.st5{fill:#FFFFFF;}
</style>
<text transform="matrix(1 0 0 1 172.4106 206.6619)"><tspan x="0" y="0" class="st0 st1 st2">Pianter</tspan><tspan x="544.5" y="0" class="st3 st1 st2">AI</tspan></text>
<g>
	<g>
		<g>
			<path class="st4" d="M99.2,54c-0.1,1.2-0.2,2.4-0.5,3.6c-0.5,2.3-1.2,4.6-2.2,6.8c-0.3,0.8-0.7,1.5-1.1,2.3c-0.1,0-0.1,0-0.2-0.1
				c0.1-0.8-0.1-1.6-0.1-2.4c-0.2-3.1-0.4-6.2-0.9-9.3c-0.6-3.8-1.4-7.5-2.7-11.2c-0.5-1.5-1-3-1.7-4.5c-0.1-0.2-0.2-0.4-0.4-0.3
				c-0.3,0.1-0.1,0.3-0.1,0.5c0.6,1.8,1,3.6,1.5,5.4c0.6,2.6,1.2,5.1,1.5,7.8c0.3,2.9,0.8,5.9,0.9,8.8c0.1,2.4,0.3,4.7,0.3,7.1
				c0.1,2,0.2,4.1,0.1,6.2c0,0.7,0,1.4,0,2.1c0,0.5,0,1-0.1,1.4c-0.1,0.5-0.3,1-0.7,1.3c-0.4,0.3-0.7,0.2-0.9-0.2
				c-0.2-0.4-0.3-0.8-0.2-1.2c0-0.3,0.1-0.5,0.1-0.8c0.1-0.8,0.4-1.5,0.4-2.3c0-1.5,0.5-3,0.3-4.4c-0.1-0.7-0.4-1.4-0.8-2h0
				c0,0-0.1-0.1-0.1-0.2c-0.8-0.9-1.7-1.3-2.7-1.8C87.5,66,86.1,65.2,85,64c-0.6-0.7-1.1-1.4-1.8-2.1c-0.2-0.3-0.5-0.6-0.7-1.1
				c-0.2-0.4-0.4-0.8-0.6-1.3c-0.9-2.3-1.7-4.5-2-7c-0.3-2.6-0.3-5.1-0.1-7.7c0.2-1.9,0.3-3.7,0.7-5.6c0.5-2.5,0.8-5,1.1-7.6
				c0.2-2.1,0.4-4.2,0.3-6.3c0-0.4,0.1-0.5,0.5-0.3c1.4,0.6,2.7,1.5,4,2.4c1.8,1.2,3.4,2.6,4.8,4.1c3.2,3.4,5.8,7.3,7.1,11.9
				C99.3,46.9,99.4,50.4,99.2,54z"/>
			<path class="st4" d="M109.7,50.1c-0.7,0.4-1.4,0.6-2,1.1c-0.3,0.2-0.7,0.3-1,0.5c-1.4,0.9-2.8,1.8-4.1,2.8
				c-0.6,0.5-1.2,0.9-1.8,1.5c-0.1,0.1-0.2,0.3-0.4,0.2c-0.2-0.1-0.1-0.3-0.1-0.5c0.1-0.7,0.1-1.4,0.2-2.1c0.1-1.1,0.1-2.1,0.1-3.2
				c0-0.4,0.1-0.7,0.4-0.9c2.4-1.8,5.1-2.9,8-3.4c1.8-0.3,3.6-0.4,5.4-0.4c1.3,0,2.7,0.1,4,0.5c0.6,0.2,0.6,0.2,0.2,0.6
				c-1.1,1.3-1.8,2.8-2.7,4.3c-1.3,2.2-2.2,4.5-3.5,6.7c-1.4,2.3-2.9,4.3-5.1,5.8c-2.5,1.7-5.3,2.5-8.3,2.2c-1.4-0.1-1.5-0.3-1-1.6
				c0.7-1.8,1.4-3.7,1.8-5.6c0.1-0.6,0.6-1,1-1.3c1-0.9,1.9-1.9,3-2.7c1.8-1.6,3.7-3,5.7-4.2c0.1,0,0.1-0.1,0.2-0.2
				C109.7,50.2,109.7,50.1,109.7,50.1z"/>
		</g>
	</g>
	<path class="st4" d="M93.8,68.6h-0.1c-0.6,0-1.2,0-1.8,0.1h0c-24.5,1.7-44,34.5-44,74.6c0,41.2,20.6,74.7,46,74.7
		c12.7,0,18.4-13.5,26.7-27c8.3-13.5,19.3-27,19.3-47.7C139.8,102,119.2,68.6,93.8,68.6z M94,171.8c-11,0-20-9-20-20
		c0-10.7,8.4-19.4,19-20V84.8h0.2c-1.8-0.4-3.2-2-3.2-3.9c0-1.5,0.8-2.7,2-3.4c0,0.3-0.1,0.5-0.1,0.8c0,0.4,0,0.8,0.2,1.2
		c0.2,0.4,0.5,0.5,0.9,0.2c0.5-0.3,0.7-0.8,0.7-1.3c0.1-0.5,0.1-1,0.1-1.4c0.1,0,0.1,0,0.2,0c2.2,0,4,1.8,4,4c0,1.9-1.3,3.5-3.2,3.9
		H95v47.1c10.6,0.5,19,9.3,19,20C114,162.9,105.1,171.8,94,171.8z"/>
	<path class="st5" d="M93.8,76.9c0,0.5,0,1-0.1,1.4c-0.1,0.5-0.3,1-0.7,1.3c-0.4,0.3-0.7,0.2-0.9-0.2c-0.2-0.4-0.3-0.8-0.2-1.2
		c0-0.3,0.1-0.5,0.1-0.8C92.5,77.1,93.2,76.9,93.8,76.9z"/>
</g>
</svg>
